{
  "swagger": "2.0",
  "info": {
    "description": "This is test of Tracker API",
    "version": "1.0.0",
    "title": "Swagger Tracker"
  },
  "host": "localhost:4800",
  "basePath": "/api",
  "schemes": ["https", "http"],
  "paths": {
    "/user/log-event": {
      "post": {
        "tags": ["Event"],
        "summary": "Add new event",
        "description": "",
        "consumes": ["application/json"],
        "produces": ["application/json"],
        "parameters": [
          {
            "in": "body",
            "name": "body",
            "description": "Event object that needs to be added to the db",
            "required": true,
            "schema": {
              "$ref": "#/definitions/Tracker"
            }
          }
        ],
        "responses": {
          "405": {
            "description": "Invalid input"
          },
          "404": {
            "description": "Not Found"
          }
        }
      }
    }
  },
  "definitions": {
    "Tracker": {
      "type": "object",
      "required": ["name", "photoUrls"],
      "properties": {
        "EventType": {
          "type": "string",
          "example": "signup_event"
        },
        "EventResult": {
          "type": "string",
          "example": "success / error"
        },
        "Prefix": {
          "type": "string",
          "example": "projectId_122342"
        },
        "Tags": {
          "type": "string",
          "example": "tags with comma separated "
        },
        "raw_data": {
          "type": "array",
          "example": {
            "button_click": "clicking register button",
            "button_name": "Register Now",
            "button_color": "red",
            "form_data": "you can also pass form data"
          }
        }
      }
    }
  }
}
